<?xml version="1.0" encoding="UTF-8" standalone="no"?>
<svg
   xmlns:dc="http://purl.org/dc/elements/1.1/"
   xmlns:cc="http://creativecommons.org/ns#"
   xmlns:rdf="http://www.w3.org/1999/02/22-rdf-syntax-ns#"
   xmlns:svg="http://www.w3.org/2000/svg"
   xmlns="http://www.w3.org/2000/svg"
   xmlns:sodipodi="http://sodipodi.sourceforge.net/DTD/sodipodi-0.dtd"
   xmlns:inkscape="http://www.inkscape.org/namespaces/inkscape"
   width="1920"
   height="1080"
   viewBox="0 0 1920 1080"
   version="1.1"
   id="svg8"
   inkscape:version="1.0.1 (3bc2e813f5, 2020-09-07)"
   sodipodi:docname="archlinux-eg.svg">
  <title
     id="title840">archlinux-eg</title>
  <defs
     id="defs2" />
  <sodipodi:namedview
     id="base"
     pagecolor="#2a2a2a"
     bordercolor="#666666"
     borderopacity="1.0"
     inkscape:pageopacity="0"
     inkscape:pageshadow="2"
     inkscape:zoom="0.49497475"
     inkscape:cx="1154.425"
     inkscape:cy="1094.6186"
     inkscape:document-units="px"
     inkscape:current-layer="layer1"
     inkscape:document-rotation="0"
     showgrid="true"
     units="px"
     objecttolerance="10000"
     borderlayer="true"
     inkscape:window-width="2192"
     inkscape:window-height="1169"
     inkscape:window-x="0"
     inkscape:window-y="0"
     inkscape:window-maximized="1"
     showguides="true"
     inkscape:guide-bbox="true"
     inkscape:snap-intersection-paths="true"
     inkscape:snap-smooth-nodes="true"
     inkscape:snap-midpoints="true"
     inkscape:snap-bbox="true">
    <inkscape:grid
       type="xygrid"
       id="grid833"
       empspacing="4" />
    <sodipodi:guide
       position="268.81667,138.64167"
       orientation="0,-1"
       id="guide976" />
    <sodipodi:guide
       position="257.70417,45.772917"
       orientation="0,-1"
       id="guide978" />
    <sodipodi:guide
       position="258.7625,242.09375"
       orientation="1,0"
       id="guide986" />
    <sodipodi:guide
       position="960,192"
       orientation="1,0"
       id="guide842" />
  </sodipodi:namedview>
  <metadata
     id="metadata5">
    <rdf:RDF>
      <cc:Work
         rdf:about="">
        <dc:format>image/svg+xml</dc:format>
        <dc:type
           rdf:resource="http://purl.org/dc/dcmitype/StillImage" />
        <dc:title>archlinux-eg</dc:title>
        <dc:date>2020</dc:date>
        <dc:creator>
          <cc:Agent>
            <dc:title>Fabian Bornschein</dc:title>
          </cc:Agent>
        </dc:creator>
        <dc:publisher>
          <cc:Agent>
            <dc:title>Fabian Bornschein</dc:title>
          </cc:Agent>
        </dc:publisher>
        <cc:license
           rdf:resource="https://creativecommons.org/licenses/by-nc-sa/4.0/" />
      </cc:Work>
    </rdf:RDF>
  </metadata>
  <g
     inkscape:label="Ebene 1"
     inkscape:groupmode="layer"
     id="layer1">
    <rect
       style="fill:#2a2a2a;fill-opacity:1;stroke-width:15.2128"
       id="rect869"
       width="1920"
       height="1080"
       x="0"
       y="0"
       ry="0" />
    <g
       id="g853"
       transform="translate(-18.00002,4e-5)">
      <path
         id="path980"
         style="fill:#eaeaea;fill-opacity:1;fill-rule:evenodd;stroke:none;stroke-width:1.33333"
         d="m 713.00004,163.99996 c -42.92671,0 -59,16.052 -59,59 v 519 c 0.0449,28.70817 5.214,45.16016 34,56 l 261,109 c 13.54,6.20667 19.128,9 29,9 9.872,0 15.46,-2.79333 28.99996,-9 l 261,-109 c 28.786,-10.83983 33.9551,-27.29183 34,-56 v -519 c 0,-42.948 -16.0733,-59 -59,-59 H 978.00004 Z"
         sodipodi:nodetypes="cscccscccsccc" />
      <path
         d="M 854.00002,815.99996 H 1102 l -123.99998,44 z"
         style="fill:#2a2a2a;fill-opacity:1;fill-rule:evenodd;stroke:none;stroke-width:1.33333"
         id="path46"
         sodipodi:nodetypes="cccc" />
      <path
         style="fill:#2a2a2a;fill-opacity:1;stroke-width:0.679861"
         d="m 1036.2469,710.37532 c -16.4453,-2.91112 -26.9228,-10.94894 -32.8445,-25.19643 l -1.8067,-4.34696 -0.2232,-30.04321 -0.2232,-30.04322 h 30.2326 l 0.2446,26.43147 c 0.2187,23.64021 0.3771,26.70884 1.5007,29.05817 1.5921,3.32924 4.4128,6.14482 7.3177,7.3044 2.6867,1.07254 10.5474,1.19364 13.3501,0.20568 2.817,-0.993 5.8164,-3.79604 7.3336,-6.85338 1.2005,-2.41916 1.3048,-4.74127 1.319,-29.38654 l 0.015,-26.7598 h 30.9698 v 27.80396 c 0,31.07143 -0.3041,33.5828 -5.0858,42.01052 -4.8777,8.59708 -16.0734,16.46703 -27.2595,19.16198 -6.3657,1.53362 -18.1213,1.84282 -24.8407,0.65336 z M 748.54199,620.7455 h 30.9698 v 64.35487 h 43.63924 v 24.95392 h -74.60904 z m 86.57464,0 h 30.9698 v 89.30879 h -30.9698 z m 51.38169,0 27.09859,0.0632 37.30451,42.87122 0.37117,-42.93447 h 30.95057 v 89.33713 l -27.04601,-0.35669 -37.35708,-42.74609 -0.37089,43.07444 h -30.95084 z m 217.49248,88.33952 29.562,-43.74141 -29.562,-43.88553 35.5448,-0.69383 16.1853,25.59179 16.1922,-25.57774 35.5449,0.69419 -30.1133,43.84016 30.1133,43.77924 -35.5449,0.94349 -16.169,-25.5918 -16.2085,25.59054 -35.5448,-0.94992 z"
         id="path949"
         sodipodi:nodetypes="ssccccssssssccssssccccccccccccccccccccccccccccccccccccc" />
      <path
         style="fill:#2a2a2a;fill-opacity:1;stroke-width:1.34781"
         d="m 1021.9554,553.52092 c -16.8151,-4.8934 -29.00644,-19.08533 -32.16229,-37.4402 -0.65783,-3.82608 -1.0678,-44.6838 -1.07146,-106.77925 -0.005,-96.92397 0.0724,-100.92008 2.14854,-109.88468 2.40906,-10.40229 9.47931,-22.37141 16.75931,-28.37158 14.9364,-12.31055 44.8277,-12.26646 59.8426,0.088 6.6274,5.45324 10.8055,11.05462 13.9237,18.66701 4.7833,11.67741 5.936,23.05583 5.936,58.59393 v 32.23092 l -17.7615,-0.46969 -17.7615,-0.46971 -0.5302,-30.15133 c -0.3974,-22.60095 -0.9092,-30.88733 -2.0435,-33.09057 -3.967,-7.70476 -13.231,-10.23995 -19.199,-5.25404 -6.3868,5.33584 -6.3291,4.44745 -6.312,97.10569 0.017,90.62557 -0.05,89.47121 5.5473,96.18434 5.3757,6.4478 18.0106,3.22529 20.5464,-5.24031 0.5044,-1.68376 1.1587,-18.47945 1.454,-37.32381 l 0.537,-34.26249 17.7615,-0.46971 17.7615,-0.4697 v 39.06994 c 0,42.14761 -0.8472,52.01768 -5.4003,62.91628 -3.6502,8.73697 -12.3629,17.86527 -20.762,21.75204 -8.3592,3.86833 -30.5099,5.60179 -39.2141,3.06875 z m -271.44921,-8.94688 c 0.33755,-3.06223 5.41359,-64.9274 11.28014,-137.47822 5.86656,-72.5508 10.9015,-133.64511 11.18878,-135.76508 l 0.52234,-3.85452 h 30.73104 c 23.87726,0 30.73129,0.47757 30.73226,2.1414 6.7e-4,1.17777 5.00897,63.42841 11.12953,138.33478 6.12059,74.90635 11.13038,137.54243 11.13286,139.19133 0.004,2.73083 -1.51018,2.99796 -16.99496,2.99796 -12.64438,0 -17.11875,-0.54861 -17.46501,-2.14141 -0.25604,-1.17776 -1.19599,-11.77772 -2.08876,-23.55544 -0.89278,-11.77775 -1.88287,-23.91952 -2.2002,-26.98172 l -0.57699,-5.56765 h -14.12133 -14.12136 l -1.81631,26.12516 c -0.99899,14.36881 -2.05115,27.4742 -2.33807,29.1231 -0.46997,2.70043 -2.2628,2.99796 -18.06469,2.99796 H 749.8925 Z m 63.67814,-104.50056 c -0.27199,-3.06224 -2.59759,-33.20713 -5.16799,-66.98868 -2.57043,-33.78157 -4.86273,-61.72673 -5.094,-62.10035 -0.37647,-0.60823 -10.34284,127.30177 -10.32519,132.51526 0.005,1.56868 2.8255,2.14143 10.54447,2.14143 h 10.5372 z m 57.56061,108.96699 c -0.40274,-0.65062 -0.73224,-64.26874 -0.73224,-141.3736 V 267.47622 h 38.00542 c 40.3389,0 44.17084,0.63221 50.92488,8.40195 1.75587,2.01992 4.53417,8.08668 6.17401,13.48172 2.85504,9.39288 2.99712,11.0522 3.34862,39.10414 0.40661,32.44943 -0.9213,45.88889 -5.68636,57.55133 -2.92935,7.16959 -9.38192,13.81067 -16.41864,16.89832 l -4.77175,2.09379 5.30194,2.02185 c 7.24269,2.76191 11.43539,6.59046 15.11487,13.8021 5.42683,10.63636 5.82091,14.87018 6.61431,71.06405 0.40575,28.73765 1.10192,53.59936 1.54708,55.24826 0.75237,2.78692 -0.4224,2.99796 -16.68702,2.99796 -15.64006,0 -17.5845,-0.31806 -18.3266,-2.99796 -0.4566,-1.6489 -1.10411,-26.64909 -1.43892,-55.55602 -0.57559,-49.69453 -0.72864,-52.81713 -2.80902,-57.31404 -2.78825,-6.02692 -6.9423,-7.746 -17.20336,-7.1192 l -8.16646,0.49884 -0.22444,60.8159 -0.22447,60.81592 -16.80481,0.46912 c -9.24266,0.25806 -17.13432,-0.0633 -17.53704,-0.71378 z m 57.46517,-171.29164 c 4.01116,-4.53899 5.42603,-12.62128 5.42421,-30.9856 -0.003,-28.25752 -2.88704,-33.32677 -18.55516,-32.61166 l -9.54348,0.43556 -0.29049,30.77865 c -0.15976,16.92824 -0.0555,31.76817 0.23183,32.97765 0.82956,3.49248 19.55405,3.00275 22.73309,-0.5946 z m 178.26909,31.06011 V 267.47622 h 17.4963 17.4964 v 56.53311 56.53309 h 13.7851 13.785 v -56.53309 -56.53311 h 18.0328 18.0327 l -0.2712,140.90446 -0.2713,140.90445 h -17.4964 -17.4964 l -0.2785,-61.24418 -0.2785,-61.24419 h -13.7716 -13.7717 v 61.67245 61.67248 h -17.4964 -17.4963 z"
         id="path965" />
    </g>
  </g>
</svg>
